<?xml version="1.0" standalone="no"?>
<!DOCTYPE svg PUBLIC "-//W3C//DTD SVG 20010904//EN"
 "http://www.w3.org/TR/2001/REC-SVG-20010904/DTD/svg10.dtd">
<svg version="1.0" xmlns="http://www.w3.org/2000/svg"
 width="600.000000pt" height="600.000000pt" viewBox="0 0 600.000000 600.000000"
 preserveAspectRatio="xMidYMid meet">

<g transform="translate(0.000000,600.000000) scale(0.100000,-0.100000)"
fill="#000000" stroke="none">
<path d="M2880 5401 c-43 -23 -86 -65 -108 -106 -15 -27 -17 -109 -20 -857
l-2 -828 235 0 235 0 0 808 c0 538 -4 820 -11 845 -13 47 -70 112 -120 138
-51 26 -160 26 -209 0z"/>
<path d="M3430 5184 c-59 -26 -101 -65 -126 -118 l-24 -51 0 -702 0 -703 235
0 235 0 0 703 0 702 -24 51 c-50 109 -190 164 -296 118z"/>
<path d="M2352 5064 c-29 -14 -64 -40 -77 -58 -58 -76 -55 -6 -54 -1223 l1
-1118 234 470 234 470 0 650 0 650 -24 51 c-55 119 -196 167 -314 108z"/>
<path d="M3967 4736 c-58 -21 -103 -61 -131 -118 l-26 -52 0 -478 0 -478 235
0 235 0 0 478 0 478 -26 52 c-53 106 -177 157 -287 118z"/>
<path d="M1370 3355 c-62 -28 -102 -67 -127 -123 -21 -45 -25 -65 -21 -116 5
-57 29 -104 393 -791 213 -401 464 -873 557 -1049 190 -358 207 -386 295 -473
344 -339 915 -298 1207 87 63 82 92 138 128 242 30 88 32 101 32 243 1 172
-11 231 -74 362 -53 108 -139 215 -231 284 -85 65 -145 97 -256 136 l-78 28
-486 3 -486 3 -274 516 c-151 285 -286 536 -301 559 -53 84 -191 128 -278 89z"/>
<path d="M2872 2910 c-62 -126 -112 -234 -112 -240 0 -6 71 -10 199 -10 227 0
322 -13 478 -65 193 -65 347 -159 494 -305 148 -146 251 -313 319 -519 l29
-86 0 728 1 727 -648 0 -649 0 -111 -230z"/>
</g>
</svg>
